669604 1059 509
478475 520993 470
350256 822845 509
22912 89800 351
16555 760554 509
617328 808777 509
364274 357117 410
16982 900005 525
625590 375953 470
679962 105420 509
63430 94626 351
435162 972345 525
231599 90472 443
790753 29026 509
771025 807714 468
367181 465565 449
14965 763547 509
963123 386994 525
545892 959601 525
372590 274492 441
768498 545633 509
362743 758228 509
863620 345505 525
988907 931986 507
756931 906358 525
521025 620786 452
360492 965551 525
211930 544261 470
711429 675646 504
491805 115576 449
921902 576527 525
952210 745677 525
907736 53074 525
647670 146023 509
392165 483062 449
460838 511267 444
765438 421421 509
594594 997739 525
565305 314349 470
640110 380132 509
731218 620716 509
271759 643484 509
698922 756521 504
79093 7874 351
916057 6428 525
985779 601962 525
234668 489593 449
658863 971565 525
278710 900080 525
383167 946691 525
844490 975979 507
630457 628420 341
209785 235811 443
779823 352549 509
177271 583079 470
265225 269717 345
890976 770287 525
292309 126474 443
223507 68327 386
599070 425182 470
428225 501383 444
584448 240543 470
164765 529534 470
664696 647613 429
717001 316860 509
866361 990493 507
50724 949252 525
110384 900487 525
619227 410495 470
479513 288445 449
876716 467000 525
643085 633683 416
330343 862605 525
647292 542884 509
55588 303695 443
171339 948838 525
514905 329564 470
410566 783445 509
106640 566960 470
701590 378392 509
706230 229458 509
257377 656504 509
114822 138643 349
590333 707129 509
447411 36364 449
153512 515336 470
508722 376756 449
409928 483707 449
187520 747668 509
479130 964401 525
254113 828937 509
54163 568256 470
462457 802674 509
621374 623057 372
544312 792529 509
155210 933118 525
336499 483587 449
306785 161315 443
365200 722911 509
854597 680600 525
682799 477086 509
698504 20372 509
220405 445246 449
727436 473757 509
212427 824996 509
297496 150050 443
536969 690544 509
813485 448258 509
16951 9344 276
21323 4395 279
916493 585881 525
683730 535519 509
920446 201904 525
277360 254478 407
25007 95622 351
898171 555971 525
942123 563437 525
443435 85873 449
375536 983837 525
776172 67828 509
445622 231295 449
926748 558864 525
828194 181820 509
960418 312179 525
804006 968746 525
458583 157575 449
21540 585869 470
374979 838032 525
127941 782416 509
461022 821739 509
363043 115923 443
716829 854845 525
229899 714750 509
285951 708306 509
339397 921954 525
699770 943575 525
339626 308908 384
139256 410724 449
479160 65036 449
88029 95326 333
541263 825057 509
271651 860279 525
322346 674245 509
13108 532350 470
209104 538379 470
325903 623395 470
848383 33850 525
289444 680444 509
178761 342530 443
670731 862721 525
925750 963428 507
88433 816766 509
2144 174581 383
34978 387849 443
948981 218342 525
22584 78435 351
76486 519892 470
662813 716860 504
898206 167385 525
853283 103274 525
856497 856098 282
713103 885767 525
973952 510352 525
120547 243274 443
235288 876046 525
580951 405081 470
176378 532123 470
976439 574742 525
629036 960329 525
842816 614587 525
192961 265145 443
538770 109846 470
354181 115048 443
986632 879279 507
96044 939209 525
383054 491890 449
35985 751601 509
489848 129836 449
386976 120805 443
912396 540770 525
687023 265661 509
349469 216986 443
839410 86260 525
809856 710112 468
527337 933980 525
8540 91185 351
180483 506986 449
243733 681098 509
514019 596239 452
693645 934398 525
702840 847648 525
597560 53275 470
511563 823608 509
635176 147496 509
144735 267850 443
509296 784369 509
582785 794568 509
59454 866058 525
261899 319790 407
809442 332861 509
819692 22951 509
533831 774472 509
308553 384652 441
222771 840723 525
813065 532902 509
837694 530804 509
911757 97429 525
106192 108900 354
357583 860022 525
991271 31524 525
680704 43862 509
468659 986814 525
260530 436825 449
655882 31315 509
803138 460286 509
170735 557115 470
935901 276172 525
601910 757639 509
347590 926252 525
346320 260633 441
444519 784556 509
732801 669800 504
501440 217234 449
882618 40289 525
927093 755158 525
595193 857939 525
843788 530662 525
899394 964416 507
581677 822966 509
6959 567957 470
781531 525780 509
