669604 1059
478475 520993
350256 822845
22912 89800
16555 760554
617328 808777
364274 357117
16982 900005
625590 375953
679962 105420
63430 94626
435162 972345
231599 90472
790753 29026
771025 807714
367181 465565
14965 763547
963123 386994
545892 959601
372590 274492
768498 545633
362743 758228
863620 345505
988907 931986
756931 906358
521025 620786
360492 965551
211930 544261
711429 675646
491805 115576
921902 576527
952210 745677
907736 53074
647670 146023
392165 483062
460838 511267
765438 421421
594594 997739
565305 314349
640110 380132
731218 620716
271759 643484
698922 756521
79093 7874
916057 6428
985779 601962
234668 489593
658863 971565
278710 900080
383167 946691
844490 975979
630457 628420
209785 235811
779823 352549
177271 583079
265225 269717
890976 770287
292309 126474
223507 68327
599070 425182
428225 501383
584448 240543
164765 529534
664696 647613
717001 316860
866361 990493
50724 949252
110384 900487
619227 410495
479513 288445
876716 467000
643085 633683
330343 862605
647292 542884
55588 303695
171339 948838
514905 329564
410566 783445
106640 566960
701590 378392
706230 229458
257377 656504
114822 138643
590333 707129
447411 36364
153512 515336
508722 376756
409928 483707
187520 747668
479130 964401
254113 828937
54163 568256
462457 802674
621374 623057
544312 792529
155210 933118
336499 483587
306785 161315
365200 722911
854597 680600
682799 477086
698504 20372
220405 445246
727436 473757
212427 824996
297496 150050
536969 690544
813485 448258
16951 9344
21323 4395
916493 585881
683730 535519
920446 201904
277360 254478
25007 95622
898171 555971
942123 563437
443435 85873
375536 983837
776172 67828
445622 231295
926748 558864
828194 181820
960418 312179
804006 968746
458583 157575
21540 585869
374979 838032
127941 782416
461022 821739
363043 115923
716829 854845
229899 714750
285951 708306
339397 921954
699770 943575
339626 308908
139256 410724
479160 65036
88029 95326
541263 825057
271651 860279
322346 674245
13108 532350
209104 538379
325903 623395
848383 33850
289444 680444
178761 342530
670731 862721
925750 963428
88433 816766
2144 174581
34978 387849
948981 218342
22584 78435
76486 519892
662813 716860
898206 167385
853283 103274
856497 856098
713103 885767
973952 510352
120547 243274
235288 876046
580951 405081
176378 532123
976439 574742
629036 960329
842816 614587
192961 265145
538770 109846
354181 115048
986632 879279
96044 939209
383054 491890
35985 751601
489848 129836
386976 120805
912396 540770
687023 265661
349469 216986
839410 86260
809856 710112
527337 933980
8540 91185
180483 506986
243733 681098
514019 596239
693645 934398
702840 847648
597560 53275
511563 823608
635176 147496
144735 267850
509296 784369
582785 794568
59454 866058
261899 319790
809442 332861
819692 22951
533831 774472
308553 384652
222771 840723
813065 532902
837694 530804
911757 97429
106192 108900
357583 860022
991271 31524
680704 43862
468659 986814
260530 436825
655882 31315
803138 460286
170735 557115
935901 276172
601910 757639
347590 926252
346320 260633
444519 784556
732801 669800
501440 217234
882618 40289
927093 755158
595193 857939
843788 530662
899394 964416
581677 822966
6959 567957
781531 525780
