439204 455179
353939 128701
31153 738395
186525 987127
209729 965696
591549 781441
249262 37684
736186 375222
129123 688026
839441 209730
432284 769745
713412 812332
775796 981025
859131 455966
212345 317828
442453 227810
929583 594406
644778 628531
947886 940441
555554 901025
516123 245631
230361 923377
124711 517696
164023 564367
379652 385260
225074 224293
614976 8422
798625 209391
250874 595153
688094 130917
322582 167404
845074 558689
799187 615838
658554 473366
214477 338876
874026 950468
932052 685922
148157 951680
274369 888528
708055 882165
915483 56843
713636 591493
448256 444124
578640 17144
859520 774861
903595 614250
622826 730976
508352 254150
184540 547974
801525 912137
758367 157034
972009 640157
425805 178978
397238 469374
381699 313416
557979 738905
159946 10003
958284 331501
809224 505481
164493 284005
782185 96505
98777 5534
858305 142502
688954 776057
643225 120704
186774 736210
429003 15848
441129 454682
612807 838052
214374 8349
639699 819780
589264 561307
522871 344569
245388 816023
883084 873877
59062 934600
848771 115420
373351 934173
185920 32730
220176 637034
423838 438774
73754 143132
270016 12826
75682 95194
347334 676031
900559 760857
610405 744961
777265 800225
467808 819232
872617 982164
138776 165663
831369 941808
173723 250963
840561 724600
6271 446266
693623 488131
672446 938053
382530 135685
201239 123514
664100 190393
44379 124831
430675 356240
806252 970864
703550 180410
198966 510198
725199 448410
163447 920888
679715 845226
383044 662998
596661 772274
859776 667887
901208 817257
718992 568719
98010 698606
806922 123090
420466 32261
188922 438533
125210 263897
556523 964978
971319 535334
365014 501343
201118 254194
48209 915251
136522 231850
365679 928835
671443 746723
783955 709736
965835 510584
494469 687119
154081 237659
842131 658156
176949 595064
672431 724535
509065 523030
555909 522665
881884 11213
667029 18091
582052 825921
84411 629125
987468 943041
92663 421716
59539 38658
580353 566635
996337 947274
692801 234559
956360 896722
134814 841969
566366 679222
9412 538862
18830 224769
191408 550208
580635 600066
623653 855962
151446 117766
235007 402354
496599 463648
285135 442231
499316 378795
750917 261065
892755 807301
740324 718898
422604 238501
511853 52391
460445 524277
397329 717277
774083 949581
244160 971063
918239 77148
63474 318830
130771 994359
823464 72244
963409 363534
229845 934499
426815 937870
722286 209005
801462 71480
269478 528225
649347 486071
653885 667756
555639 583051
542150 405859
621521 152903
22878 824313
348150 629632
316122 844436
497743 402368
727373 617670
697344 675087
497120 964966
340466 347502
817870 214892
981800 491323
611868 33585
998798 887140
651026 406500
980776 342472
934025 436591
486634 22523
212367 140491
810332 576730
357575 6487
162737 135281
624190 399247
815295 984008
355413 878166
21088 365314
764176 518860
884942 511052
69349 849541
666172 494364
500217 937273
436937 892631
