461807 39413
202621 824175
40503 165297
733868 3975
573206 625728
856237 91101
811362 202692
70388 424324
420530 529157
805699 48212
403703 952842
779956 655326
536768 604494
331684 622297
507521 835916
313900 795138
146690 783728
232929 80591
625637 404762
952925 113114
524758 351853
317287 883632
634987 381910
777693 12795
372949 60803
305642 788008
840229 312809
325723 957485
534537 941774
913152 355667
769047 600332
881381 870316
140083 220890
686698 235172
603849 32084
105577 83317
268995 886023
36840 565859
369255 147990
89670 20627
621134 340666
515764 896926
44954 879621
351252 150919
271254 60437
374802 880650
757138 403289
888665 503540
934722 20062
357358 768460
322442 35081
65174 356742
792544 984199
104262 977384
640789 210905
812179 292893
523153 184577
210279 861085
719416 550254
719608 632182
857716 217417
514227 101806
622438 931565
894140 688869
349576 322023
629169 589544
901505 464571
376782 55861
719778 154874
508040 160614
897209 656787
800029 172286
260271 91952
512301 2760
496507 73869
163155 565402
756476 203028
745471 258178
227241 938676
848357 787729
389789 124388
778558 548202
54855 432471
912906 699290
672744 997498
486371 906023
108257 671346
250015 95992
36499 960776
412811 479935
638469 850087
304094 960266
931358 143419
398578 638563
508154 620409
585339 643086
604117 612649
403567 36393
822590 291449
375964 547057
269826 204071
895587 200290
852209 816375
601633 371496
923609 463846
610311 923882
35217 487511
563891 429109
149401 810776
879446 207714
913501 819045
227543 280935
598388 24733
387321 81233
432263 641337
938621 122878
430065 677452
307413 870345
135553 123864
163283 898475
911636 737836
424978 117496
516068 654155
857301 375555
527217 871552
819211 211158
852370 999036
709296 498478
391109 451653
674918 258000
41366 566308
483230 543070
923526 576694
93644 488790
269820 673187
410198 949456
230713 615768
919173 61400
500363 909369
908119 242099
466573 544320
998789 214232
829642 253186
367355 817678
289175 107061
125751 721112
303253 296668
633433 158799
223549 725144
298771 866014
557236 920890
523748 130858
61587 936330
525302 199539
631930 430983
88879 967143
916860 912689
133143 403311
624291 64981
683644 513818
412657 627224
752752 760292
675996 459225
397906 284178
534757 910538
539991 390560
374883 696924
217607 521695
704577 967406
268378 111080
428853 628874
596518 651981
324763 353346
763951 588694
722429 478087
414643 503787
559805 208151
27846 752636
623278 62647
733029 897874
352758 261923
632534 395078
792386 543209
764812 963744
219928 290464
535316 532466
780288 441675
95755 685416
527804 494801
2328 604704
219080 94094
661030 895983
795514 319419
464224 367957
768812 801340
217312 779248
247638 860331
564999 19312
318482 227618
761737 395392
995124 167025
871664 393435
957122 743963
681066 44063
212904 571962
969776 750103
84225 837011
487578 298190
465436 366806
294324 128565
961233 690200
521073 441653
357045 634247
643729 329037
908445 688887
990725 789146
37289 12468
415305 847089
485348 948135
400346 54779
48476 87475
954136 535920
5711 103741
920804 25031
361111 592135
155343 73513
995009 128685
827651 592198
781488 912500
119377 729736
75364 148858
508169 237620
781718 824752
772916 314866
923454 707183
589961 61364
701211 640136
980644 898928
404072 817317
22651 301295
885287 50980
461395 913667
43842 871602
769213 337819
805809 883942
72213 127406
219557 580736
778087 996551
366534 807045
589087 70150
