165879 616318 470
252059 509649 449
413877 84217 449
441494 171586 449
245963 686969 509
916070 84476 525
43710 707994 509
574107 939593 525
319440 351746 441
773809 558871 509
972171 236896 525
864898 294336 525
629097 181896 509
446942 736239 509
82666 92328 333
45759 936973 525
331140 464813 449
490039 839019 525
886890 756173 525
337835 263604 407
888836 785901 525
90348 799042 509
451593 850776 525
5358 390769 443
561222 222079 470
664989 605514 509
988816 664717 525
925684 592672 525
887689 738866 525
231613 203506 443
669062 419104 509
331740 629723 509
318186 335853 384
292691 694007 509
442994 114633 449
896673 707484 525
254535 848549 525
581700 108033 470
173317 821493 509
774346 683772 504
346063 938688 525
655792 466615 509
688174 972566 525
786388 538676 509
111742 866987 525
408658 729175 509
177012 655581 509
54942 782058 509
364215 700097 509
814122 75924 509
161136 247445 443
821312 546987 509
409847 496349 449
465444 344652 449
479388 356754 449
439745 147742 449
326906 186191 443
703884 95402 509
803205 530336 509
137454 49018 354
949119 312248 525
795842 217684 509
822174 665848 504
393058 878054 525
549705 166870 470
373241 687365 509
342256 44375 443
319025 692203 509
864125 906472 445
725068 653917 504
285956 918589 525
796795 980045 525
791701 961621 525
881026 808040 525
42324 294382 443
468390 600832 470
334479 531925 470
342757 702013 509
312182 694247 509
512595 847383 525
448402 894335 525
501127 761070 509
834107 896644 525
440044 787539 509
965574 573109 525
64186 954414 525
746094 244019 509
703432 165137 509
895448 299009 525
845594 450129 525
941351 436697 525
453675 393620 449
170791 512717 470
726077 843120 525
582863 519337 452
560474 820040 509
327224 762768 509
200845 895560 525
994986 58554 525
910170 593912 525
153548 294367 443
717936 360346 509
183931 452354 449
222569 458816 449
474096 517656 470
686727 42121 509
396192 149303 443
158790 266270 443
935648 246379 525
351340 305119 441
422616 865981 525
118135 274554 443
540075 930399 525
725883 140274 509
121246 631330 509
855601 993660 507
344517 222685 443
314009 34072 443
707944 603465 509
486104 540469 470
169896 730577 509
388665 22520 443
301340 197574 443
308400 324771 384
632624 457297 509
494353 15030 449
984112 964466 458
425175 509436 444
597868 960399 525
854671 217752 525
839717 855969 419
327256 405305 441
767405 419880 509
90178 211085 383
75440 882160 525
336851 722260 509
326871 454476 449
671378 324615 509
613551 695294 509
18454 619207 470
418857 188578 449
777990 391778 509
768445 575742 509
141812 554219 470
699806 309323 509
185288 288846 443
700431 414611 509
903856 126711 525
374962 168344 443
935952 345337 525
75519 213656 383
84930 362981 443
397669 465780 449
88657 943530 525
964986 433931 525
94971 106796 354
943652 331291 525
729553 465008 509
853194 297035 525
307033 653989 509
790695 193616 509
872587 923102 476
651619 918718 525
856917 227947 525
307679 980194 525
975168 841029 507
110020 981244 525
691883 930464 525
791029 862501 525
308021 910854 525
658010 317072 509
203400 646169 509
318708 317324 309
160683 817972 509
798920 241991 509
935713 116201 525
397010 28158 443
758551 957773 525
943726 207063 525
110527 512658 470
840695 91670 525
855111 188779 525
288155 8890 443
921653 237825 525
936372 135443 525
29491 716367 509
487310 223691 449
396735 411942 449
744085 328174 509
303747 316400 384
439370 447621 356
411916 825531 509
695212 369768 509
285671 288167 327
408418 814381 509
147137 507077 449
259761 530276 470
55483 849017 525
264168 599073 470
723993 261117 509
933325 815414 525
619680 894044 525
238005 938285 525
603903 725740 509
438167 188831 449
606880 256248 470
930960 371807 525
489666 245703 449
784376 678685 504
727020 80141 509
536082 413032 470
679166 817185 504
428595 149936 449
287832 644196 509
518462 65063 470
691785 915691 525
323108 479707 449
759795 714523 424
800754 486165 509
164443 771916 509
41921 781258 509
293430 636066 509
678592 832477 504
743475 429035 509
766177 153993 509
925733 390641 525
11657 103503 351
224147 735133 509
49025 948064 525
297544 512054 470
977350 572943 525
870051 820747 525
550969 461828 470
878311 548809 525
822515 661340 504
896980 143161 525
115247 823410 509
562275 419900 470
467386 42741 449
685693 18447 509
796062 356391 509
387136 633229 509
968012 934183 507
730975 946153 525
3353 541670 470
190242 866795 525
570237 706452 509
146970 193381 383
266812 520826 470
