551565 734536 509
611721 300895 470
257836 777470 509
502221 845608 525
92829 702000 509
100028 26192 351
685839 83131 509
241438 711153 509
73537 978797 525
238746 902475 525
619606 844921 525
590951 85132 470
351988 247730 441
681842 585188 509
213560 673562 509
975765 863762 507
710390 440390 509
780700 868834 525
272304 153036 443
213888 472323 449
85696 519417 470
517476 272096 470
667764 99753 509
216166 354254 443
672610 573047 509
220388 62671 386
46564 848503 525
246169 800559 509
178391 631028 509
437061 254841 449
171371 253607 443
909450 557202 525
562994 398032 470
296779 814272 509
685267 485599 509
432249 785255 509
929899 559671 525
263558 455201 449
389749 820064 509
89269 604114 470
96213 903013 525
977866 929603 507
24508 595281 470
399352 249557 441
319028 686306 509
894707 704252 525
84286 908197 525
831876 234406 509
564300 310969 470
352324 798523 509
19803 320781 443
281728 618281 470
558199 402007 470
276065 167340 443
250296 381841 441
495389 750913 509
221431 411649 449
722586 505982 509
463072 286983 449
47631 99801 351
1723 455608 449
497893 287170 449
827108 54801 509
644757 743453 504
267472 402836 441
347167 913822 525
536101 982840 525
974534 405684 525
478887 419113 444
338876 536837 470
333164 200184 443
187333 549831 470
237234 276761 407
318650 828628 509
268652 581110 470
865712 412801 525
420856 831740 509
640413 136412 509
280635 288965 389
314025 145600 443
780799 183619 509
555048 783301 509
318508 529633 470
60110 388946 443
403336 130605 443
258195 416683 449
50844 929680 525
134805 894191 525
317631 218487 443
855204 570105 525
622044 382351 470
31507 915503 525
957158 293731 525
396155 66984 443
590880 783799 509
701882 551276 509
210262 969108 525
704618 861898 525
758380 953466 525
251460 197458 443
875731 636380 525
218218 923202 525
644285 854730 525
728028 790445 468
179123 744986 509
920819 641510 525
237768 181017 443
180385 144241 383
77005 525012 470
261967 343424 407
605891 907870 525
13766 825805 509
483583 663734 509
258481 53249 443
318406 942864 525
458939 45200 449
43810 786473 509
716635 302652 509
115487 372674 443
158371 777810 509
167831 798893 509
4630 494791 449
414350 163483 449
366543 502421 449
408436 672628 509
65150 906038 525
42376 252525 443
758250 670847 504
904824 333395 525
5899 98032 351
901525 776750 525
197987 648465 509
267601 572939 470
13117 776358 509
224745 575359 470
156392 921388 525
732362 689161 504
830961 221088 509
15138 669907 509
296191 504360 449
641377 908421 525
323903 686916 509
941934 272842 525
789383 895805 525
50482 805955 509
917267 858295 476
354518 421241 449
65259 678101 509
367621 201701 443
741232 566373 509
754348 531277 509
48096 62688 340
331831 570779 470
411282 680496 509
871942 478862 525
474346 242964 449
72853 75616 325
131600 48859 354
579619 927785 525
28483 518013 470
213409 638515 509
216076 199260 373
121936 8610 354
999504 648808 525
457658 535654 470
197776 523021 470
740342 686001 504
189206 377713 443
890606 394488 525
273908 557659 470
921145 235037 525
924230 525077 525
247871 823773 509
106735 176645 383
46242 619726 470
135364 301898 443
161561 406245 443
382551 915358 525
925141 94105 525
658491 869449 525
201089 168649 365
816887 475487 509
836809 558023 509
537955 656864 509
827898 415652 509
278542 772730 509
247069 367644 441
69261 741777 509
20008 395454 443
602928 978575 525
779972 345647 509
435838 812094 509
736708 2127 509
829723 813630 450
152167 428326 449
185951 842192 525
992424 936810 507
111307 96359 354
183638 764801 509
381674 629211 509
241906 186427 443
639334 3225 509
381496 331065 441
546075 620611 452
262280 83546 443
946774 577716 525
171443 800803 509
990205 498899 525
846712 580188 525
840168 434035 525
247454 577719 470
548447 688438 509
88489 863722 525
132880 799900 509
201588 780563 509
5908 937718 525
320057 534456 470
35933 561849 470
201117 411764 449
145970 355695 443
382683 436618 449
942113 948466 383
126758 409764 443
210445 533381 470
928636 409220 525
649695 219472 509
973703 47805 525
582400 942052 525
139220 860588 525
246667 974234 525
125468 739957 509
919546 187804 525
599123 936702 525
