209642 418002
267915 678923
734876 355302
512588 314316
459058 529688
142810 592316
75478 670494
250214 193445
45088 803211
712431 511765
556940 274925
121503 635080
757930 735425
662181 843399
652984 305907
822000 2893
943758 287241
296285 824508
334287 966741
376062 298857
509699 366773
187566 520740
551192 460855
278328 806999
465060 25376
684624 961028
644850 581292
971153 489537
900262 491237
807726 80763
902570 460072
806623 625702
931457 428825
87636 712184
385536 770044
860778 458631
945172 409841
710036 521390
60702 225509
135540 52802
908106 19000
648145 662850
655628 896403
662129 712982
393698 619138
492007 468946
680593 444017
656458 64917
999312 325272
245907 856929
482893 923867
479227 880413
377457 539042
435470 430697
390070 502805
648933 357943
712285 304998
342401 957155
700534 973667
53772 179872
344743 930271
149509 932979
109369 949933
707874 682332
831441 165286
478561 31372
728494 431789
551370 50167
332509 654041
451589 432455
332287 419068
20685 265408
939474 393475
813283 516252
899999 454102
847706 158003
49443 534844
341178 373101
910532 684379
233448 679551
662544 928800
89647 624403
166299 642759
868020 146292
625167 955254
998617 387858
888380 712614
373188 879233
828848 463231
721428 415742
975170 191423
764286 918714
183576 414376
196116 966458
920204 67659
978860 751759
333034 490989
315452 472244
597626 237097
366938 198534
996152 446201
454491 73584
989251 88665
749924 309781
113773 553945
698638 876939
358025 940511
616300 973728
157100 110126
82396 191461
321670 731201
341549 663518
62915 139254
886229 628959
812869 363378
890347 90555
59173 725550
975431 578738
776341 282827
104882 971364
688259 291197
995285 790191
990556 272209
784560 469206
960486 50820
802351 107844
505442 377146
326276 457921
670245 39424
585466 642160
490725 260379
3983 103439
742070 268359
689324 542331
224031 494803
882624 3869
68978 460729
891620 161896
636260 811614
506400 850403
920416 181271
260112 438734
159279 31411
588255 617731
298481 227508
806800 5441
609854 775375
187037 708536
199069 910681
206472 725198
317920 787862
160951 441403
504480 832127
239183 417143
301350 148266
117883 418051
173907 959370
536145 842503
154918 64736
796996 556340
447013 747705
344458 600141
890909 441906
185518 59654
580984 446645
209787 114971
680063 859648
769409 454159
93262 53133
365105 838242
132677 406661
361848 432948
590889 258860
433716 308415
459266 271195
803361 657395
261886 104306
651876 166297
260584 710389
614685 602325
472946 999512
903749 310952
880853 792542
67848 17958
882675 410344
779603 555102
72703 983904
800576 529688
396833 998572
505035 645035
699725 810702
885196 831503
530183 861149
618797 927019
139370 478431
631404 266693
402358 146285
18767 106202
95227 502871
866803 981539
889372 765408
975282 864362
456148 49708
456773 587766
619222 655325
537962 837217
475710 229850
917045 202056
986764 429755
124043 829028
37975 701856
140143 166464
491081 228191
137177 186009
41123 304739
156028 653119
567939 466422
204757 486118
274141 631293
5544 56458
825946 425593
89468 991651
244199 904647
52305 323712
823434 528906
539314 334623
115598 999133
819223 362268
471267 342660
617513 749265
981515 333428
596953 560215
838422 187512
188029 927657
252249 172656
805715 340491
110360 931026
837726 731176
310418 218368
71169 178284
117750 23531
301466 283426
54219 950683
495251 926083
398271 135963
593953 995868
530014 624811
380736 954126
432961 533684
684108 308652
907184 140811
167664 170788
991757 975710
949664 356739
676556 733593
93292 188600
652507 609932
199104 320976
31994 459280
431698 314404
931567 694660
8339 222759
536745 474100
65421 889540
