1 1
2 2
3 3
4 4
5 5
6 6
7 7
8 8
9 9
10 10
11 11
12 12
13 13
14 14
15 15
16 16
17 17
18 18
19 19
20 20
1 100
101 200
201 300
301 400
401 500
501 600
601 700
701 800
801 900
901 1000
1001 1100
1101 1200
1201 1300
1301 1400
1401 1500
1501 1600
1601 1700
1701 1800
1801 1900
1901 2000
2001 2100
2101 2200
2201 2300
2301 2400
2401 2500
1 100
2 101
3 102
4 103
5 104
6 105
7 106
8 107
9 108
10 109
11 110
12 111
13 112
14 113
15 114
16 115
17 116
18 117
19 118
20 119
21 120
22 121
23 122
24 123
25 124
1 10000
5000 10000
7500 10000
8750 10000
9375 10000
9687 10000
9843 10000
9921 10000
9960 10000
9980 10000
9990 10000
9995 10000
9997 10000
9998 10000
100000 200000
100000 200000
100000 200000
100000 200000
1 2
2 4
4 8
8 16
16 32
32 64
64 128
128 256
256 512
512 1024
1024 2048
2048 4096
4096 8192
8192 16384
16384 32768
32768 65536
65536 131072
131072 262144
262144 524288
1 2
1 4
1 8
1 16
1 32
1 64
1 128
1 256
1 512
1 1024
1 2048
1 4096
1 8192
1 16384
1 32768
1 65536
1 131072
1 262144
1 524288
997499 997599
997599 997699
997699 997799
997799 997899
997899 997999
997999 998099
998099 998199
998199 998299
998299 998399
998399 998499
998499 998599
998599 998699
998699 998799
998799 998899
998899 998999
998999 999099
999099 999199
999199 999299
999299 999399
999399 999499
999499 999599
999599 999699
999699 999799
999799 999899
999899 999999
4759 9110
912 5605
3803 7963
960 4216
699 927
3330 6901
1636 8259
122 7896
6128 9838
5038 9716
1526 2097
2693 7334
5992 6863
3316 9092
2247 4399
4366 5901
2064 4844
2025 3795
2848 9034
4423 8534
6968 7667
3919 7246
3344 4791
2440 4676
923 2004
785 7002
191 9754
1744 9065
1711 4679
2480 4833
6035 8135
1479 7417
1518 4860
853 2348
1498 9512
2651 8627
1012 9661
5116 8283
4720 9114
4386 6018
1308 8868
7158 8606
2008 2275
2351 5362
1566 3530
4232 7681
508 4347
4842 6998
605 3137
679 1876
