647430 222738
637352 759013
53319 684779
754863 600662
392779 580521
157685 130984
955868 617246
887050 263029
777103 334431
793164 990208
299789 669536
573674 894349
138855 458023
315807 974238
702781 158396
830539 912551
226890 824540
833741 528561
127186 135412
307151 995797
662891 809495
888554 412584
522929 775208
710677 862929
824342 594885
422958 428121
858544 535857
216953 533770
982503 818862
170397 3751
366391 282251
814101 956364
796664 547108
653633 509778
220690 711349
576207 269101
428792 858894
893426 80925
496897 214352
57480 441818
898874 234706
93066 706643
82651 444999
76711 852725
759816 466104
181104 620757
463452 885249
161018 258011
696501 852463
138074 109927
586745 481541
739534 531530
851060 809388
825526 603705
711250 73804
766507 13807
990223 15961
10410 764797
94415 593052
59596 987253
591131 437866
527633 348855
979660 366305
573803 843175
748248 336128
787789 166015
686966 253102
642243 716794
92251 589808
632101 90554
51669 554067
322893 920536
194122 238526
800279 366174
303440 65499
437833 679446
876858 929509
253148 74767
566430 892547
182468 556116
301927 36888
104283 785950
712320 407832
474359 164522
981049 934692
353038 120832
318056 333621
9400 858714
607955 237942
204341 259200
320640 793972
41074 784891
365774 571063
671489 389400
706918 829086
71116 693713
206598 411995
508898 472691
328957 648597
210333 401577
755272 667977
966652 539991
322472 14507
540784 361003
896830 495368
502604 303438
345622 983189
306486 220855
865979 634483
250990 189903
778698 736054
933634 988809
926833 814778
938479 697417
811198 275930
325493 798524
674360 396783
766674 729342
128166 151699
803238 114302
805912 540979
627745 134679
720808 586114
696807 250851
214199 757783
129189 666841
66660 350631
374743 191391
301609 337144
834975 127677
330564 134462
2915 185583
770274 771888
782839 786515
314796 48353
741843 866687
941732 227733
443194 730231
446333 267262
199574 317755
796131 400247
836977 731681
486933 742876
554789 577430
622019 825828
548614 376994
962435 879620
379868 56785
363710 484349
705188 70463
224551 480478
326541 590428
736073 499113
319376 161074
578729 837175
255769 781775
297507 126759
786261 823137
381420 183081
135672 837738
575839 449814
420773 364669
897052 921679
730194 469629
850638 234859
931624 229286
677083 432336
380422 931781
370193 344775
151869 233350
826551 875260
306613 744853
308219 804400
664111 566587
820199 974504
364312 266407
584086 678323
665669 341244
834317 991157
124695 317590
186401 914432
885605 320419
132162 944411
437400 617377
82693 24283
222026 902952
283204 703251
209917 522024
77824 349836
129841 594750
154602 133229
160149 639066
41981 481621
659887 489695
723687 243361
926801 607764
421074 697089
109474 194001
527554 122530
293123 955409
700308 937043
453450 361613
429801 330011
247052 328535
207406 603499
25488 620962
562005 321726
400761 27924
315543 262325
189146 640469
338510 395213
340798 154081
434452 331852
978695 702206
130713 432996
666606 571353
96658 198528
60102 551852
747695 972813
988657 271300
239897 129678
21578 841089
211705 200098
167442 435265
951149 914412
267947 775679
529422 309912
105359 711056
249567 561475
531766 54334
666250 617913
95295 376337
167172 18816
784201 636731
742663 486964
978141 967436
112179 13009
137818 326395
137536 825672
7014 447091
107654 897093
200757 299008
286362 880933
869634 769999
810858 201217
181132 584407
539344 983607
499229 832353
895523 305434
846544 838093
177201 680681
769753 298727
45232 969756
605919 507587
106899 404039
